{
  "compilerOptions": {
    "baseUrl": ".",
    "paths": {
      "@components/*": ["./src/components/*"],
      "@components": ["./src/components/index"],
      "@screens/*": ["./src/screens/*"],
      "@screens": ["./src/screens/index"],
      "@navigation/*": ["./src/navigation/*"],
      "@navigation": ["./src/navigation/index"],
      "@config/*": ["./src/config/*"],
      "@config": ["./src/config"],
      "@assets/*": ["./assets/*"],
      "@assets": ["./assets"],
      "@utils/*": ["./src/utils/*"],
      "@utils": ["./src/utils"],
      "@actions/*": ["./src/redux/actions/*"],
      "@actions": ["./src/redux/actions"],
      "@constants/*": ["./src/constants/*"],
      "@constants": ["./src/constants"],
      "@context/*": ["./src/context/*"],
      "@context": ["./src/context"],
      "@hoc/*": ["./src/hoc/*"],
      "@hoc": ["./src/hoc"],
      "@action-types/*": ["./src/redux/constants/action-types/*"],
      "@action-types": ["./src/redux/constants/action-types"],
      "@__tests__": ["./__tests__"],
      "@__tests__/*": ["./__tests__"],
    }
  }
}
